Canadian Wages – My new blog
…
Data Cleaning

wages_modified <- can_wages %>%
  janitor::clean_names(case = "snake") # clean names

wages_modified

# A tibble: 7,425 × 6
   rownames wages education   age sex    language
      <dbl> <dbl>     <dbl> <dbl> <chr>  <chr>   
 1        1  10.6      15      40 Male   English 
 2        2  11        13.2    19 Male   English 
 3        3  NA        16      49 Male   Other   
 4        4  17.8      14      46 Male   Other   
 5        5  NA         8      71 Male   English 
 6        6  14        16      50 Female English 
 7        7  NA        12      70 Female English 
 8        8  NA        14.5    42 Female English 
 9        9   8.2      15      31 Male   English 
10       10  NA        10      56 Female English 
# ℹ 7,415 more rows
…
Dropping NA

wages_modified_clean <- wages_modified1 %>% 
 tidyr::drop_na() 
wages_modified_clean

# A tibble: 3,980 × 6
   rownames wages education   age sex    language
      <dbl> <dbl>     <dbl> <dbl> <chr>  <chr>   
 1        1 10.6       15      40 Male   English 
 2        2 11         13.2    19 Male   English 
 3        4 17.8       14      46 Male   Other   
 4        6 14         16      50 Female English 
 5        9  8.2       15      31 Male   English 
 6       12 17.0       13.5    30 Female English 
 7       14  6.7       12      61 Female English 
 8       20 14         14      46 Female Other   
 9       25 19.2       18      43 Male   English 
10       26  7.25      11      17 Male   English 
# ℹ 3,970 more rows
…
dplyr::count(wages_munged)

# A tibble: 1 × 1
      n
  <int>
1  3980

dplyr::summarise(wages_munged)

# A tibble: 1 × 0

crosstable::crosstable(wages_munged)

# A tibble: 21 × 4
   .id      label    variable   value                 
   <chr>    <chr>    <chr>      <chr>                 
 1 rownames rownames Min / Max  1.0 / 7425.0          
 2 rownames rownames Med [IQR]  3699.0 [1838.5;5584.2]
 3 rownames rownames Mean (std) 3713.1 (2145.2)       
 4 rownames rownames N (NA)     3980 (0)              
 5 sex      sex      Female     1997 (50.18%)         
 6 sex      sex      Male       1983 (49.82%)         
 7 language language English    3238 (81.36%)         
 8 language language French     259 (6.51%)           
 9 language language Other      483 (12.14%)          
10 wages    wages    Min / Max  2.3 / 49.9            
# ℹ 11 more rows
