Fertility – My new blog
…
Data Cleaning

fertility_modified <- fertility %>%
  janitor::clean_names(case = "snake") # clean names

fertility_modified

# A tibble: 254,654 × 9
   rownames morekids gender1 gender2   age afam  hispanic other  work
      <dbl> <chr>    <chr>   <chr>   <dbl> <chr> <chr>    <chr> <dbl>
 1        1 no       male    female     27 no    no       no        0
 2        2 no       female  male       30 no    no       no       30
 3        3 no       male    female     27 no    no       no        0
 4        4 no       male    female     35 yes   no       no        0
 5        5 no       female  female     30 no    no       no       22
 6        6 no       male    female     26 no    no       no       40
 7        7 no       female  male       29 no    no       no        0
 8        8 no       male    male       33 no    no       no       52
 9        9 no       female  male       29 no    no       no        0
10       10 no       male    female     27 no    no       no        0
# ℹ 254,644 more rows

Dropping NA

tidyr::drop_na(fertility_modified)

# A tibble: 254,654 × 9
   rownames morekids gender1 gender2   age afam  hispanic other  work
      <dbl> <chr>    <chr>   <chr>   <dbl> <chr> <chr>    <chr> <dbl>
 1        1 no       male    female     27 no    no       no        0
 2        2 no       female  male       30 no    no       no       30
 3        3 no       male    female     27 no    no       no        0
 4        4 no       male    female     35 yes   no       no        0
 5        5 no       female  female     30 no    no       no       22
 6        6 no       male    female     26 no    no       no       40
 7        7 no       female  male       29 no    no       no        0
 8        8 no       male    male       33 no    no       no       52
 9        9 no       female  male       29 no    no       no        0
10       10 no       male    female     27 no    no       no        0
# ℹ 254,644 more rows
…
dplyr::count(fertility_sample)

# A tibble: 1 × 1
      n
  <int>
1  1000

dplyr::summarise(fertility_sample)

# A tibble: 1 × 0

crosstable::crosstable(fertility_sample)

# A tibble: 24 × 4
   .id      label    variable   value                    
   <chr>    <chr>    <chr>      <chr>                    
 1 rownames rownames Min / Max  277.0 / 2.5e+05          
 2 rownames rownames Med [IQR]  1.3e+05 [6.1e+04;1.9e+05]
 3 rownames rownames Mean (std) 1.3e+05 (7.3e+04)        
 4 rownames rownames N (NA)     1000 (0)                 
 5 morekids morekids no         609 (60.90%)             
 6 morekids morekids yes        391 (39.10%)             
 7 gender1  gender1  female     520 (52.00%)             
 8 gender1  gender1  male       480 (48.00%)             
 9 gender2  gender2  female     470 (47.00%)             
10 gender2  gender2  male       530 (53.00%)             
# ℹ 14 more rows
