UFO – My new blog
…
Data Cleaning

ufo_sightings_modified <- ufo_sightings %>%
  janitor::clean_names(case = "snake") # clean names

ufo_sightings_modified

# A tibble: 80,332 × 11
   date_time        city_area           state country ufo_shape encounter_length
   <chr>            <chr>               <chr> <chr>   <chr>                <dbl>
 1 10/10/1949 20:30 san marcos          tx    us      cylinder              2700
 2 10/10/1949 21:00 lackland afb        tx    <NA>    light                 7200
 3 10/10/1955 17:00 chester (uk/englan… <NA>  gb      circle                  20
 4 10/10/1956 21:00 edna                tx    us      circle                  20
 5 10/10/1960 20:00 kaneohe             hi    us      light                  900
 6 10/10/1961 19:00 bristol             tn    us      sphere                 300
 7 10/10/1965 21:00 penarth (uk/wales)  <NA>  gb      circle                 180
 8 10/10/1965 23:45 norwalk             ct    us      disk                  1200
 9 10/10/1966 20:00 pell city           al    us      disk                   180
10 10/10/1966 21:00 live oak            fl    us      disk                   120
# ℹ 80,322 more rows
# ℹ 5 more variables: described_encounter_length <chr>, description <chr>,
#   date_documented <chr>, latitude <dbl>, longitude <dbl>
…
Removing the gb, au rows

ufo_modified_clean <- ufo_sightings_modified1 %>% 
 tidyr::drop_na() %>% 
 filter(c(!country == "gb")) %>% 
   filter(c(!country == "au"))
 
ufo_modified_clean

# A tibble: 66,495 × 11
   date_time        city_area  state country ufo_shape encounter_length
   <chr>            <chr>      <chr> <chr>   <chr>                <dbl>
 1 10/10/1949 20:30 san marcos tx    us      cylinder              2700
 2 10/10/1956 21:00 edna       tx    us      circle                  20
 3 10/10/1960 20:00 kaneohe    hi    us      light                  900
 4 10/10/1961 19:00 bristol    tn    us      sphere                 300
 5 10/10/1965 23:45 norwalk    ct    us      disk                  1200
 6 10/10/1966 20:00 pell city  al    us      disk                   180
 7 10/10/1966 21:00 live oak   fl    us      disk                   120
 8 10/10/1968 13:00 hawthorne  ca    us      circle                 300
 9 10/10/1968 19:00 brevard    nc    us      fireball               180
10 10/10/1970 16:00 bellmore   ny    us      disk                  1800
# ℹ 66,485 more rows
# ℹ 5 more variables: described_encounter_length <chr>, description <chr>,
#   date_documented <chr>, latitude <dbl>, longitude <dbl>
…
dplyr::summarise(ufo_modified_munged)

# A tibble: 1 × 0

dplyr::count(ufo_modified_munged)

# A tibble: 1 × 1
      n
  <int>
1 66495

crosstable::crosstable(ufo_modified_munged)

# A tibble: 143,781 × 4
   .id       label     variable       value        
   <chr>     <chr>     <chr>          <chr>        
 1 date_time date_time 1/1/1910 24:00 1 (1.50e-03%)
 2 date_time date_time 1/1/1944 12:00 1 (1.50e-03%)
 3 date_time date_time 1/1/1956 05:30 1 (1.50e-03%)
 4 date_time date_time 1/1/1957 21:00 1 (1.50e-03%)
 5 date_time date_time 1/1/1958 22:00 1 (1.50e-03%)
 6 date_time date_time 1/1/1961 12:00 1 (1.50e-03%)
 7 date_time date_time 1/1/1961 13:00 1 (1.50e-03%)
 8 date_time date_time 1/1/1962 08:00 1 (1.50e-03%)
 9 date_time date_time 1/1/1963 22:00 1 (1.50e-03%)
10 date_time date_time 1/1/1965 17:00 1 (1.50e-03%)
# ℹ 143,771 more rows
